{
  "_comment": "Blog Admin comments for jus know ...",
  "title": "Additional Info ",
  "base_slug": "core",
  "_items_menu": [],
  "items_menu": [
    {
      "type"  : "title",
      "title" : "Books",
      "class" : "space15"
    },
    {
      "type": "url",
      "icon": "fa fa-glass",
      "text": "Experiencias",
      "url": "core/list-experiences",
      "background": "#9cbb24"
    },
    {
      "type": "url",
      "icon": "fa fa-cutlery",
      "text": "Foodays",
      "url": "core/list-foodays",
      "background": "#bb24ba"
    },
    {
      "type": "url",
      "icon": "fa fa-calendar",
      "text": "Programas",
      "url": "core/list-plans",
      "background": "#FF2A27"
    },

    {
      "type"  : "title",
      "title" : "Places",
      "class" : "space15"
    },
    {
      "type": "url",
      "icon": "fa fa-globe",
      "text": "Places",
      "url": "core/list-places",
      "background": "#570BD3"
    },
    {
      "type": "url",
      "icon": "fa fa-map-pin",
      "text": "Ciudades",
      "url": "core/list-cities",
      "background": "#570BD3"
    },
    {
      "type"  : "title",
      "title" : "Webmaster",
      "class" : "space15"
    },
    {
      "type": "url",
      "icon": "fa fa-comments-o",
      "text": "Feedback",
      "url": "core/list-feedback",
      "background": "#FFA719"
    },
    {
      "type": "url",
      "icon": "fa fa-usd",
      "text": "Reservas",
      "url": "core/list-user_buy_all",
      "background": "#2875b9"
    },
    {
      "type": "url",
      "icon": "fa fa-users",
      "text": "Clientes",
      "url": "core/list-clients",
      "background": "#0CC0F6"
    },
    {
      "type": "url",
      "icon": "fa fa-bed",
      "text": "Directorio Hospedaje",
      "url": "core/list-apartments",
      "background": "#24bba7"
    },
    {
      "type"  : "title",
      "title" : "Usuarios",
      "class" : "space15"
    },
    {
      "type": "url",
      "icon": "fa fa-user",
      "text": "Perfiles",
      "url": "core/",
      "background": "#9cbb24"
    }
  ]
}