
<svg width="15px" height="17px" viewBox="0 0 15 17" version="1.1" xmlns="http://www.w3.org/2000/svg" xmlns:xlink="http://www.w3.org/1999/xlink">
    <!-- Generator: Sketch 48.1 (47250) - http://www.bohemiancoding.com/sketch -->
    <desc>Created with Sketch.</desc>
    <defs></defs>
    <g id="01-desktop" stroke="none" stroke-width="1" fill="none" fill-rule="evenodd">
        <g id="FSt_Desk_B_05_Experience_01_Ficha-producto" transform="translate(-442.000000, -945.000000)" fill="#F8C51C">
            <g id="Group-4" transform="translate(442.000000, 939.000000)">
                <path d="M9.94079529,22.9832513 C11.6950533,22.9832513 13.6272795,22.6527389 14.3900003,22.2713785 L14.3900003,19.5764314 C13.5001593,20.0340639 12.0764137,20.4154244 10.1950356,20.4154244 C8.05941715,20.4154244 5.8983747,19.7035516 5.23734995,17.5425091 L10.4238518,17.5425091 L10.4238518,15.3814667 L4.95768563,15.3814667 C4.9322616,15.2289225 4.90683757,14.8984101 4.90683757,14.4662016 C4.90683757,14.1102652 4.9322616,13.8306009 4.95768563,13.6780567 L10.4238518,13.6780567 L10.4238518,11.5170143 L5.31362203,11.5170143 C5.8983747,9.7881803 7.42381643,8.51697886 10.1696116,8.51697886 C11.7967494,8.51697886 13.5255834,9.05088347 14.2120321,9.48309196 L14.2120321,6.76272087 C13.4747353,6.3559364 11.7713254,6 10.0170674,6 C5.49159024,6 3.02545944,8.36443469 2.31358663,11.5170143 L0,11.5170143 L0,13.6780567 L2.03392231,13.6780567 C2.00849828,13.8560249 1.98307425,14.1102652 1.98307425,14.5170497 C1.98307425,14.9238341 2.00849828,15.1780744 2.03392231,15.3814667 L0,15.3814667 L0,17.5425091 L2.26273857,17.5425091 C2.97461138,21.1527212 5.74583053,22.9832513 9.94079529,22.9832513 Z" id="€"></path>
            </g>
        </g>
    </g>
</svg>