
<svg width="154px" height="146px" viewBox="0 0 154 146" version="1.1" xmlns="http://www.w3.org/2000/svg" xmlns:xlink="http://www.w3.org/1999/xlink">
    <!-- Generator: Sketch 48.2 (47327) - http://www.bohemiancoding.com/sketch -->
    <desc>Created with Sketch.</desc>
    <defs></defs>
    <g id="Symbols" stroke="none" stroke-width="1" fill="none" fill-rule="evenodd">
        <g id="Iconos/opiniones/Full" transform="translate(-3.000000, -7.000000)" fill="#333333">
            <polygon id="Page-1" points="79.646 7 61.552 62.687 3 62.687 50.37 97.103 32.276 152.788 79.646 118.372 127.016 152.788 108.922 97.103 156.292 62.687 97.74 62.687"></polygon>
        </g>
    </g>
</svg>