
<svg width="40px" height="22px" viewBox="0 0 40 22" version="1.1" xmlns="http://www.w3.org/2000/svg" xmlns:xlink="http://www.w3.org/1999/xlink">
    <!-- Generator: Sketch 48.2 (47327) - http://www.bohemiancoding.com/sketch -->
    <desc>Created with Sketch.</desc>
    <defs></defs>
    <g id="Symbols" stroke="none" stroke-width="1" fill="none" fill-rule="evenodd">
        <g id="Desktop/Footer-negro" transform="translate(-580.000000, -251.000000)" fill="#ffffff">
            <path d="M616.493114,257.682925 C609.439956,258.02568 603.590387,263.132249 601.970753,269.911349 C601.323897,269.986639 600.666377,270.026303 600.000086,270.026303 C599.835835,270.026303 599.6721,270.023319 599.508881,270.01858 C601.178737,261.655579 608.402337,255.329624 617.063606,255.239943 C616.929626,256.075155 616.738028,256.891062 616.493114,257.682925 Z M604.977491,269.280596 C606.560663,264.728787 610.510769,261.312298 615.309819,260.577122 C613.167506,264.727559 609.451823,267.905892 604.977491,269.280596 Z M594.304965,269.042967 C595.54708,262.677174 599.27807,257.216617 604.415254,253.763799 L610.107279,253.763799 C603.326038,256.300323 598.18765,262.33986 596.806911,269.723562 C595.949194,269.559644 595.11332,269.331492 594.304965,269.042967 Z M587.271758,253.763799 L589.813089,253.763799 C590.855696,256.36561 592.548598,258.627825 594.685236,260.33879 C594.281058,261.046413 593.906807,261.773867 593.56661,262.520626 C590.690757,260.329313 588.472939,257.28752 587.271758,253.763799 Z M591.776189,267.89975 C586.754926,265.11805 583.226886,259.872483 582.760963,253.763799 L584.427723,253.763799 C585.791952,258.43688 588.692399,262.440071 592.530023,265.161399 C592.232652,266.054 591.980341,266.967661 591.776189,267.89975 Z M599.973427,253.763799 C598.563449,255.036712 597.288828,256.46196 596.175018,258.014974 C594.779487,256.856137 593.623195,255.409828 592.793685,253.763799 L599.973427,253.763799 Z M580,251 L580,252.845224 C580.232531,263.915162 589.096921,272.818182 599.999914,272.818182 C610.903079,272.818182 619.767469,263.915162 619.994496,252.845224 L620,251 L580,251 Z" id="Fill-1"></path>
        </g>
    </g>
</svg>