
<svg width="32px" height="32px" viewBox="0 0 32 32" version="1.1" xmlns="http://www.w3.org/2000/svg" xmlns:xlink="http://www.w3.org/1999/xlink">
    <!-- Generator: Sketch 49 (51002) - http://www.bohemiancoding.com/sketch -->
    <desc>Created with Sketch.</desc>
    <defs></defs>
    <g id="01-desktop" stroke="none" stroke-width="1" fill="none" fill-rule="evenodd">
        <g id="FSt_Desk_D_01_Contact" transform="translate(-165.000000, -1281.000000)" fill="#F8C51C">
            <path d="M189.631067,1293.74507 C189.643067,1293.90987 189.643067,1294.07507 189.643067,1294.23987 C189.643067,1299.2796 185.5092,1305.08667 177.9516,1305.08667 C175.623467,1305.08667 173.460933,1304.46053 171.641733,1303.3748 C171.972,1303.41093 172.290667,1303.42307 172.633867,1303.42307 C174.5552,1303.42307 176.322933,1302.82093 177.7344,1301.79373 C175.928267,1301.75747 174.414667,1300.65973 173.893333,1299.1492 C174.147467,1299.18547 174.4016,1299.2096 174.6688,1299.2096 C175.038133,1299.2096 175.145333,1299.16133 175.488533,1299.07867 C173.606267,1298.72587 171.933333,1297.1912 171.933333,1295.33813 L171.933333,1295.28987 C171.933333,1295.57347 173.378133,1295.7508 174.0516,1295.77507 C172.946267,1295.09027 172.352,1293.92187 172.352,1292.6004 C172.352,1291.8916 172.6196,1291.24253 172.975733,1290.67493 C174.9992,1292.98933 178.072,1294.49987 181.482267,1294.66507 C181.4172,1294.38147 181.396533,1294.0868 181.396533,1293.79107 C181.396533,1291.69013 183.237067,1289.98 185.512533,1289.98 C186.695867,1289.98 187.770133,1290.43947 188.5192,1291.18267 C189.4484,1291.01747 190.340533,1290.69907 191.129067,1290.26227 C190.824933,1291.1484 190.176933,1291.8916 189.323867,1292.3632 C190.150933,1292.28053 190.953067,1292.06893 191.690933,1291.7732 C191.130667,1292.5284 190.432133,1293.20147 189.631067,1293.74507 M181,1281 C172.163333,1281 165,1288.16347 165,1297 C165,1305.83667 172.163333,1313 181,1313 C189.836533,1313 197,1305.83667 197,1297 C197,1288.16347 189.836533,1281 181,1281" id="icon-twitter"></path>
        </g>
    </g>
</svg>