
<svg width="154px" height="146px" viewBox="0 0 154 146" version="1.1" xmlns="http://www.w3.org/2000/svg" xmlns:xlink="http://www.w3.org/1999/xlink">
    <!-- Generator: Sketch 48.2 (47327) - http://www.bohemiancoding.com/sketch -->
    <desc>Created with Sketch.</desc>
    <defs></defs>
    <g id="Symbols" stroke="none" stroke-width="1" fill="none" fill-rule="evenodd">
        <g id="Iconos/opiniones/B" transform="translate(-3.000000, -7.000000)" fill="#333333">
            <path d="M79.646,7 L61.552,62.687 L3,62.687 L50.37,97.103 L32.276,152.788 L79.646,118.372 L127.016,152.788 L108.922,97.103 L156.292,62.687 L97.74,62.687 L79.646,7 Z M56.248,95.193 L18.389,67.687 L65.186,67.687 L79.646,23.18 L94.107,67.687 L140.904,67.687 L103.044,95.193 L117.505,139.699 L79.646,112.193 L41.787,139.699 L56.248,95.193 Z" id="Page-1"></path>
        </g>
    </g>
</svg>