<svg width="9px" height="9px" viewBox="0 0 9 9" version="1.1" xmlns="http://www.w3.org/2000/svg" xmlns:xlink="http://www.w3.org/1999/xlink">
    <!-- Generator: Sketch 48.2 (47327) - http://www.bohemiancoding.com/sketch -->
    <desc>Created with Sketch.</desc>
    <defs></defs>
    <g id="01-desktop" stroke="none" stroke-width="1" fill="none" fill-rule="evenodd">
        <g id="FSt_Desk_B_05_Experience_02_Ficha-producto" transform="translate(-114.000000, -1151.000000)" fill="#48D2A0">
            <g id="Iconos/Tick/B-Copy-24" transform="translate(113.000000, 1150.000000)">
                <polygon id="Page-1" points="8.46615 1.58118125 4.835875 8.25831875 2.4112 5.833575 1.925 6.31970625 5.000325 9.3951 9.07011875 1.9096"></polygon>
            </g>
        </g>
    </g>
</svg>