
<svg width="137px" height="119px" viewBox="0 0 137 119" version="1.1" xmlns="http://www.w3.org/2000/svg" xmlns:xlink="http://www.w3.org/1999/xlink">
    <!-- Generator: Sketch 49.1 (51147) - http://www.bohemiancoding.com/sketch -->
    <desc>Created with Sketch.</desc>
    <defs></defs>
    <g id="01-desktop" stroke="none" stroke-width="1" fill="none" fill-rule="evenodd">
        <g id="FSt_Desk_B_05_Experience_01_Ficha-producto" transform="translate(-381.000000, -1460.000000)" fill="#FFFFFF">
            <g id="Group" transform="translate(110.000000, 1324.000000)">
                <path d="M339.058324,209.682722 C307.049241,209.682722 279.886271,180.096695 274.932927,174.365068 C279.886271,168.634305 306.942011,139.048278 339.058324,139.048278 C371.174638,139.048278 398.230377,168.634305 403.184586,174.365068 C398.230377,180.096695 371.159937,209.682722 339.058324,209.682722 M386.737719,154.732426 C393.932521,160.22884 400.509884,166.490565 406.354795,173.405184 L407.116648,174.365068 L406.354795,175.325816 C400.509884,182.2413 393.932521,188.501296 386.737719,193.997709 C375.641122,202.533753 358.355439,212.731 339.058324,212.731 C319.76121,212.731 302.476391,202.549318 291.379794,193.997709 C284.184128,188.501296 277.606765,182.2413 271.762718,175.325816 L271,174.365068 L271.762718,173.405184 C277.606765,166.490565 284.184128,160.22884 291.379794,154.732426 C302.476391,146.181682 319.76121,136 339.058324,136 C358.355439,136 375.641122,146.181682 386.737719,154.732426 Z M339.058324,194.912538 C327.67895,194.702402 318.624915,185.306787 318.835052,173.926548 C319.045189,162.547174 328.441668,153.493139 339.821042,153.703276 C351.074161,153.911683 360.078905,163.110133 360.047774,174.364981 C359.930166,185.847261 350.540605,195.066466 339.058324,194.973071 L339.058324,194.912538 Z M339.058324,150.708613 C325.995263,150.919614 315.575772,161.67982 315.785909,174.743746 C315.99691,187.806807 326.757116,198.226298 339.820178,198.016161 C352.7345,197.807754 363.094322,187.281033 363.096052,174.364981 C362.978444,161.200743 352.224292,150.615219 339.058324,150.708613 Z" id="Combined-Shape"></path>
                <g id="Botón/ver-más/secundario" transform="translate(287.000000, 229.000000)">
                    <g id="Group-3" stroke-width="1" fill-rule="evenodd" transform="translate(0.000000, 7.000000)">
                        <rect id="Rectangle-8" x="0" y="18" width="103" height="1"></rect>
                        <polygon id="Page-1" points="96.0025935 0 95.5542169 0.481750946 101.133965 3.85400757 95.5542169 7.22626419 96.0025935 7.70801513 102.379481 3.85400757"></polygon>
                    </g>
                    <text id="SEE-MORE-Copy" font-family="FSLucas-Bold, FS Lucas" font-size="13" font-weight="bold" line-spacing="19" letter-spacing="1.73333335">
                        <tspan x="0" y="11">SEE DETAILS</tspan>
                    </text>
                </g>
            </g>
        </g>
    </g>
</svg>