
<svg width="16px" height="12px" viewBox="0 0 16 12" version="1.1" xmlns="http://www.w3.org/2000/svg" xmlns:xlink="http://www.w3.org/1999/xlink">
    <!-- Generator: Sketch 49.1 (51147) - http://www.bohemiancoding.com/sketch -->
    <desc>Created with Sketch.</desc>
    <defs></defs>
    <g id="01-desktop" stroke="none" stroke-width="1" fill="none" fill-rule="evenodd">
        <g id="FSt_Desk_B_05_Experience_02_Ficha-producto" transform="translate(-758.000000, -1092.000000)" fill="#FFFFFF">
            <g id="Iconos/Flecha/arriba/B" transform="translate(766.500000, 1098.500000) scale(1, -1) translate(-766.500000, -1098.500000) translate(757.000000, 1089.000000)">
                <polygon id="Page-1" transform="translate(9.104177, 9.975000) rotate(90.000000) translate(-9.104177, -9.975000) " points="4.39375 2.375 3.68125 3.325 12.5478375 9.975 3.68125 16.625 4.39375 17.575 14.5270437 9.975"></polygon>
            </g>
        </g>
    </g>
</svg>