
<svg width="26px" height="22px" viewBox="0 0 26 22" version="1.1" xmlns="http://www.w3.org/2000/svg" xmlns:xlink="http://www.w3.org/1999/xlink">
    <!-- Generator: Sketch 48.2 (47327) - http://www.bohemiancoding.com/sketch -->
    <desc>Created with Sketch.</desc>
    <defs></defs>
    <g id="01-desktop" stroke="none" stroke-width="1" fill="none" fill-rule="evenodd">
        <g id="FSt_Desk_B_05_Experience_01_Ficha-producto" transform="translate(-112.000000, -940.000000)" fill="#F8C51C">
            <g id="Group-6" transform="translate(111.000000, 937.000000)">
                <g id="Iconos/agenda/b-Copy-11">
                    <path d="M25.375,24.922975 L2.625,24.922975 C2.141825,24.922975 1.75,24.531325 1.75,24.047975 L1.75,4.797975 C1.75,4.314625 2.141825,3.922975 2.625,3.922975 L4.375,3.922975 L4.375,5.672975 L3.5,5.672975 L3.5,23.172975 L24.5,23.172975 L24.5,5.672975 L23.625,5.672975 L23.625,3.922975 L25.375,3.922975 C25.858175,3.922975 26.25,4.314625 26.25,4.797975 L26.25,24.047975 C26.25,24.531325 25.858175,24.922975 25.375,24.922975 Z M11.375,5.672975 L11.375,3.922975 L16.7125,3.922975 L16.7125,5.672975 L11.375,5.672975 Z M7,6.65 L7,3.15 L8.75,3.15 L8.75,6.65 L7,6.65 Z M19.25,6.547975 L19.25,3.19375 L21,3.19375 L21,6.547975 L19.25,6.547975 Z M7,14.422975 C5.552575,14.422975 4.375,13.2454 4.375,11.797975 C4.375,10.35055 5.552575,9.172975 7,9.172975 C8.447425,9.172975 9.625,10.35055 9.625,11.797975 C9.625,13.2454 8.447425,14.422975 7,14.422975 Z M7,10.922975 C6.517525,10.922975 6.125,11.3155 6.125,11.797975 C6.125,12.28045 6.517525,12.672975 7,12.672975 C7.482475,12.672975 7.875,12.28045 7.875,11.797975 C7.875,11.3155 7.482475,10.922975 7,10.922975 Z M14,14.422975 C12.552575,14.422975 11.375,13.2454 11.375,11.797975 C11.375,10.35055 12.552575,9.172975 14,9.172975 C15.447425,9.172975 16.625,10.35055 16.625,11.797975 C16.625,13.2454 15.447425,14.422975 14,14.422975 Z M14,10.922975 C13.517525,10.922975 13.125,11.3155 13.125,11.797975 C13.125,12.28045 13.517525,12.672975 14,12.672975 C14.482475,12.672975 14.875,12.28045 14.875,11.797975 C14.875,11.3155 14.482475,10.922975 14,10.922975 Z M21,14.422975 C19.552575,14.422975 18.375,13.2454 18.375,11.797975 C18.375,10.35055 19.552575,9.172975 21,9.172975 C22.447425,9.172975 23.625,10.35055 23.625,11.797975 C23.625,13.2454 22.447425,14.422975 21,14.422975 Z M21,10.922975 C20.517525,10.922975 20.125,11.3155 20.125,11.797975 C20.125,12.28045 20.517525,12.672975 21,12.672975 C21.482475,12.672975 21.875,12.28045 21.875,11.797975 C21.875,11.3155 21.482475,10.922975 21,10.922975 Z M7,21.422975 C5.552575,21.422975 4.375,20.2454 4.375,18.797975 C4.375,17.35055 5.552575,16.172975 7,16.172975 C8.447425,16.172975 9.625,17.35055 9.625,18.797975 C9.625,20.2454 8.447425,21.422975 7,21.422975 Z M7,17.922975 C6.517525,17.922975 6.125,18.3155 6.125,18.797975 C6.125,19.28045 6.517525,19.672975 7,19.672975 C7.482475,19.672975 7.875,19.28045 7.875,18.797975 C7.875,18.3155 7.482475,17.922975 7,17.922975 Z M14,21.422975 C12.552575,21.422975 11.375,20.2454 11.375,18.797975 C11.375,17.35055 12.552575,16.172975 14,16.172975 C15.447425,16.172975 16.625,17.35055 16.625,18.797975 C16.625,20.2454 15.447425,21.422975 14,21.422975 Z M14,17.922975 C13.517525,17.922975 13.125,18.3155 13.125,18.797975 C13.125,19.28045 13.517525,19.672975 14,19.672975 C14.482475,19.672975 14.875,19.28045 14.875,18.797975 C14.875,18.3155 14.482475,17.922975 14,17.922975 Z M21,21.422975 C19.552575,21.422975 18.375,20.2454 18.375,18.797975 C18.375,17.35055 19.552575,16.172975 21,16.172975 C22.447425,16.172975 23.625,17.35055 23.625,18.797975 C23.625,20.2454 22.447425,21.422975 21,21.422975 Z M21,17.922975 C20.517525,17.922975 20.125,18.3155 20.125,18.797975 C20.125,19.28045 20.517525,19.672975 21,19.672975 C21.482475,19.672975 21.875,19.28045 21.875,18.797975 C21.875,18.3155 21.482475,17.922975 21,17.922975 Z" id="Combined-Shape"></path>
                </g>
            </g>
        </g>
    </g>
</svg>