
<svg width="22px" height="22px" viewBox="0 0 22 22" version="1.1" xmlns="http://www.w3.org/2000/svg" xmlns:xlink="http://www.w3.org/1999/xlink">
    <!-- Generator: Sketch 48.2 (47327) - http://www.bohemiancoding.com/sketch -->
    <desc>Created with Sketch.</desc>
    <defs></defs>
    <g id="Symbols" stroke="none" stroke-width="1" fill="none" fill-rule="evenodd">
        <g id="Mobile/footer-negro" transform="translate(-255.000000, -413.000000)" fill="#FFFFFF" fill-rule="nonzero">
            <g id="Group-8" transform="translate(44.000000, 413.000000)">
                <path d="M222,0 C219.012583,0 218.638125,0.0128333333 217.464792,0.066 C216.29375,0.119625 215.493958,0.305708333 214.794542,0.5775 C214.071292,0.858458333 213.457583,1.23475 212.846625,1.84616667 C212.23475,2.45758333 211.858458,3.07129167 211.5775,3.79454167 C211.305708,4.49441667 211.119167,5.29375 211.066,6.46479167 C211.012833,7.638125 211,8.01258333 211,11 C211,13.9874167 211.012833,14.361875 211.066,15.5352083 C211.119625,16.70625 211.305708,17.5060417 211.5775,18.2054583 C211.858458,18.9287083 212.23475,19.5424167 212.846167,20.153375 C213.457583,20.76525 214.071292,21.1415417 214.794542,21.4229583 C215.494417,21.6942917 216.29375,21.880375 217.464792,21.934 C218.638125,21.9871667 219.012583,22 222,22 C224.987417,22 225.361875,21.9871667 226.535208,21.934 C227.70625,21.880375 228.506042,21.6942917 229.205458,21.4225 C229.928708,21.1415417 230.542417,20.76525 231.153375,20.1538333 C231.76525,19.5424167 232.141542,18.9287083 232.422958,18.2054583 C232.694292,17.5055833 232.880375,16.70625 232.934,15.5352083 C232.987167,14.361875 233,13.9874167 233,11 C233,8.01258333 232.987167,7.638125 232.934,6.46479167 C232.880375,5.29375 232.694292,4.49395833 232.4225,3.79454167 C232.141542,3.07129167 231.76525,2.45758333 231.153833,1.846625 C230.542417,1.23475 229.928708,0.858458333 229.205458,0.5775 C228.505583,0.305708333 227.70625,0.119166667 226.535208,0.066 C225.361875,0.0128333333 224.987417,0 222,0 Z M222,2 C224.931084,2 225.278258,2.01143525 226.435963,2.06403741 C227.506302,2.11298028 228.087213,2.29182761 228.474639,2.44231551 C228.986938,2.64128888 229.352866,2.8791421 229.737091,3.26336654 C230.120858,3.64759097 230.358711,4.01351901 230.557684,4.52581826 C230.70863,4.91232974 230.88702,5.49369791 230.935963,6.56403741 C230.988565,7.72128481 231,8.06891645 231,11 C231,13.9310836 230.988565,14.2782578 230.935963,15.4359626 C230.88702,16.5063021 230.708172,17.0872128 230.557684,17.4746392 C230.358711,17.9869384 230.120858,18.3528664 229.736633,18.7370909 C229.352409,19.1208579 228.986481,19.3587111 228.474182,19.5576845 C228.08767,19.7086298 227.506302,19.8870197 226.435963,19.9359626 C225.278715,19.9885647 224.931084,20 222,20 C219.068459,20 218.721285,19.9885647 217.564037,19.9359626 C216.493698,19.8870197 215.912787,19.7081724 215.525361,19.5576845 C215.013062,19.3587111 214.647134,19.1208579 214.262909,18.7366335 C213.879142,18.352409 213.641289,17.986481 213.442316,17.4741817 C213.29137,17.0876703 213.11298,16.5063021 213.064037,15.4359626 C213.011435,14.2787152 213,13.9310836 213,11 C213,8.06891645 213.011435,7.72174222 213.064037,6.56403741 C213.11298,5.49369791 213.291828,4.91278715 213.442316,4.52536085 C213.641289,4.0130616 213.879142,3.64713356 214.263367,3.26290913 C214.647591,2.8791421 215.013519,2.64128888 215.525818,2.44231551 C215.91233,2.2913702 216.493698,2.11298028 217.564037,2.06403741 C218.721285,2.01143525 219.068916,2 222,2 Z M221.5,5 C218.462147,5 216,7.46214703 216,10.5 C216,13.537853 218.462147,16 221.5,16 C224.537853,16 227,13.537853 227,10.5 C227,7.46214703 224.537853,5 221.5,5 Z M221.5,14 C219.567003,14 218,12.4329966 218,10.5 C218,8.56700338 219.567003,7 221.5,7 C223.432997,7 225,8.56700338 225,10.5 C225,12.4329966 223.432997,14 221.5,14 Z M230,5.5 C230,6.32842712 229.328427,7 228.5,7 C227.671573,7 227,6.32842712 227,5.5 C227,4.67157288 227.671573,4 228.5,4 C229.328427,4 230,4.67157288 230,5.5 Z" id="Instagram"></path>
            </g>
        </g>
    </g>
</svg>